format  {TclDevKit Project File}
fmtver  2.0
fmttool {TclDevKit TclApp PackageDefinition} 4.0

##  Saved at : Tue Feb  7 01:19:52 2017 GMT
##  By       : tclbuild
##
##  Generated by Camel UBS

########
#####
###
##
#

Package  {stubs__writer 1}
Base     @TAP_DIR@
Path     pkgIndex.tcl
Path     writer.tcl

Platform MSWin32-x64

#
##
###
#####
########
