format  {TclDevKit Project File}
fmtver  2.0
fmttool {TclDevKit TclApp PackageDefinition} 4.0

##  Saved at : Tue Feb  7 01:19:52 2017 GMT
##  By       : tclbuild
##
##  Generated by Camel UBS

########
#####
###
##
#

Package  {critcl 3.1.16}
Base     @TAP_DIR@
Path     Config
Path     critcl.tcl
Path     license.terms
Path     pkgIndex.tcl
Path     critcl_c/cdata.c
Path     critcl_c/header.c
Path     critcl_c/pkginit.c
Path     critcl_c/pkginitend.c
Path     critcl_c/pkginittk.c
Path     critcl_c/preload.c
Path     critcl_c/storageclass.c
Path     critcl_c/stubs.c
Path     critcl_c/stubs_e.c
Path     critcl_c/tclAppInit.c
Path     critcl_c/tkstubs.c
Path     critcl_c/tkstubs_noconst.c
Path     critcl_c/tcl8.4/tcl.h
Path     critcl_c/tcl8.4/tclDecls.h
Path     critcl_c/tcl8.4/tclPlatDecls.h
Path     critcl_c/tcl8.4/tk.h
Path     critcl_c/tcl8.4/tkDecls.h
Path     critcl_c/tcl8.4/tkPlatDecls.h
Path     critcl_c/tcl8.4/X11/cursorfont.h
Path     critcl_c/tcl8.4/X11/keysym.h
Path     critcl_c/tcl8.4/X11/keysymdef.h
Path     critcl_c/tcl8.4/X11/tkIntXlibDecls.h
Path     critcl_c/tcl8.4/X11/X.h
Path     critcl_c/tcl8.4/X11/Xatom.h
Path     critcl_c/tcl8.4/X11/Xfuncproto.h
Path     critcl_c/tcl8.4/X11/Xlib.h
Path     critcl_c/tcl8.4/X11/Xutil.h
Path     critcl_c/tcl8.5/tcl.h
Path     critcl_c/tcl8.5/tclDecls.h
Path     critcl_c/tcl8.5/tclPlatDecls.h
Path     critcl_c/tcl8.5/tk.h
Path     critcl_c/tcl8.5/tkDecls.h
Path     critcl_c/tcl8.5/tkPlatDecls.h
Path     critcl_c/tcl8.5/X11/cursorfont.h
Path     critcl_c/tcl8.5/X11/keysym.h
Path     critcl_c/tcl8.5/X11/keysymdef.h
Path     critcl_c/tcl8.5/X11/tkIntXlibDecls.h
Path     critcl_c/tcl8.5/X11/X.h
Path     critcl_c/tcl8.5/X11/Xatom.h
Path     critcl_c/tcl8.5/X11/Xfuncproto.h
Path     critcl_c/tcl8.5/X11/Xlib.h
Path     critcl_c/tcl8.5/X11/Xutil.h
Path     critcl_c/tcl8.6/tcl.h
Path     critcl_c/tcl8.6/tclDecls.h
Path     critcl_c/tcl8.6/tclPlatDecls.h
Path     critcl_c/tcl8.6/tk.h
Path     critcl_c/tcl8.6/tkDecls.h
Path     critcl_c/tcl8.6/tkPlatDecls.h
Path     critcl_c/tcl8.6/X11/cursorfont.h
Path     critcl_c/tcl8.6/X11/keysym.h
Path     critcl_c/tcl8.6/X11/keysymdef.h
Path     critcl_c/tcl8.6/X11/tkIntXlibDecls.h
Path     critcl_c/tcl8.6/X11/X.h
Path     critcl_c/tcl8.6/X11/Xatom.h
Path     critcl_c/tcl8.6/X11/Xfuncproto.h
Path     critcl_c/tcl8.6/X11/Xlib.h
Path     critcl_c/tcl8.6/X11/Xutil.h

Platform MSWin32-x64

#
##
###
#####
########
